[
  {
    "category": "HDL Cholesterol",
    "testName": "Total HDL Cholestero",
    "threshold": 40
  },
  {
    "category": "HDL Cholesterol",
    "testName": "HDL Cholestero",
    "threshold": 40
  },
  {
    "category": "HDL Cholesterol",
    "testName": "CHOLESTEROL- HDL",
    "threshold": 40
  },
  {
    "category": "HDL Cholesterol",
    "testName": "HDL, Total",
    "threshold": 40
  },
  {
    "category": "LDL Cholesterol",
    "testName": "CHOLESTEROL-LDL calc",
    "threshold": 100
  },
  {
    "category": "LDL Cholesterol",
    "testName": "CHOLESTEROL-LDL",
    "threshold": 100
  },
  {
    "category": "HM Hemoglobin - A1C",
    "testName": "A1C",
    "threshold": 4
  }
]